controllers\AjoutPersonneController.class
controllers\SupprPersonneController.class
Utilitaires\CreerListe.class
main.class
Utilitaires\GenereKey.class
controllers\ICommand.class
controllers\PageAcceuilController.class
DAOPersonne\DaoPersonne.class
models\Personne.class
controllers\ListePersonneGroupeController.class
controllers\ListePersonneController.class
models\forms\SaisiePersonneForm.class
frontController\ServletFrontController.class
controllers\ListePersonneJouantInstrumentController.class
controllers\ModifPersonneController.class
autreServlet.class
